…
Writing functions always makes me think of what other arguments might be useful. What if we want something between the 676 two-letter words and 17,576 three-letter words (or the 456,976 four-letter words, etc)? Hence the argument num_letters, which can be set between 1 and 26, and results in a total of \(\text{num_letters}^n\) words. By default, the function returns a tibble, but setting as_vector = TRUE does what you’d expect. And I threw in a case argument too.

Now that I had my function, what to do with it? I remembered articles I’d read about the usefulness of making and sharing a personal package. Now seemed like the time to do that myself.

So, here is my personal package, EMK. If you think that n_letter_words might be of use to you, then feel free to install!

devtools::install_github("EllaKaye/EMK")
library(EMK)

Some examples of n_letter_words:

n_letter_words(2)

## # A tibble: 676 x 1
##     word
##  * <chr>
##  1    AA
##  2    BA
##  3    CA
##  4    DA
##  5    EA
##  6    FA
##  7    GA
##  8    HA
##  9    IA
## 10    JA
## # ... with 666 more rows
…
